NEIGHBORHOOD QUALITY (detail),
"Enforce existing regulations (to address blight, vacancy)",7
Housing stability to increase safety and reduce neighborhood crime,7
Mixed income/mixed age - avoid concentration,4
Deregulate/minimize zoning restrictions to encourage development,5
"Other: accessible transportation, infill, community gardens, historic character",8
