﻿IDEAS 1,Count
Provide Rent Assistance and Eviction Prevention,30
"Invest in Shelter: emergency, year-round, low barrier, upgrade existing",15
Provide Home Ownership and Mortgage Assistance,13
Provide Utility Assistance,12
Provide Home Improvement and Rehab Assistance,11
Attach Education and Mental Health Services to Funding,4
Neighborhood Quality,31
